tb_cpu_pipeline.vcd
$date
	Sun Mar  9 16:29:00 2025
$end
$version
	Icarus Verilog
$end
$timescale
	1s
$end
$scope module tb_cpu_pipeline $end
$var reg 1 ! clk $end
$var reg 1 " rst $end
$scope module inst $end
$var wire 1 ! CLK $end
$var wire 4 # KEY [3:0] $end
$var wire 16 $ t3 [15:0] $end
$var wire 16 % t2 [15:0] $end
$var wire 16 & t1 [15:0] $end
$var wire 16 ' t0 [15:0] $end
$var wire 1 ( rst $end
$var wire 1 ) rFlag $end
$var wire 16 * memory_data [15:0] $end
$var wire 8 + imm_id [7:0] $end
$var wire 8 , imm_ex [7:0] $end
$var wire 8 - imm [7:0] $end
$var wire 16 . im_out_id [15:0] $end
$var wire 16 / im_out [15:0] $end
$var wire 16 0 i1 [15:0] $end
$var wire 16 1 i0 [15:0] $end
$var wire 3 2 data_SEL_ex [2:0] $end
$var wire 3 3 data_SEL [2:0] $end
$var wire 16 4 const [15:0] $end
$var wire 4 5 alu_control_ex [3:0] $end
$var wire 4 6 alu_control [3:0] $end
$var wire 16 7 address [15:0] $end
$var wire 16 8 Y2_sel [15:0] $end
$var wire 16 9 Y2_ex [15:0] $end
$var wire 16 : Y2 [15:0] $end
$var wire 16 ; Y1_sel [15:0] $end
$var wire 16 < Y1_ex [15:0] $end
$var wire 16 = Y1 [15:0] $end
$var wire 16 > Y0_sel [15:0] $end
$var wire 16 ? Y0_ex [15:0] $end
$var wire 16 @ Y0 [15:0] $end
$var wire 9 A SEL [8:0] $end
$var wire 16 B PC_im [15:0] $end
$var wire 16 C PC [15:0] $end
$var wire 4 D LD_registers_wb [3:0] $end
$var wire 4 E LD_registers_ex [3:0] $end
$var wire 4 F LD_registers [3:0] $end
$var wire 1 G LD_memory_ex $end
$var wire 1 H LD_memory $end
$var wire 1 I LD_address $end
$var wire 1 J LD_PC $end
$var wire 7 K LD [6:0] $end
$var wire 16 L F [15:0] $end
$var wire 16 M BUS_wb [15:0] $end
$var wire 16 N BUS [15:0] $end
$scope module address_reg $end
$var wire 1 I LD $end
$var wire 1 ! clk $end
$var wire 1 ( rst $end
$var wire 16 O imm [15:0] $end
$var reg 16 P address [15:0] $end
$upscope $end
$scope module alu $end
$var wire 4 Q alu_control [3:0] $end
$var wire 16 R Y2 [15:0] $end
$var wire 16 S Y1 [15:0] $end
$var wire 16 T Y0 [15:0] $end
$var wire 16 U F [15:0] $end
$scope function func_result $end
$var reg 16 V Y0 [15:0] $end
$var reg 16 W Y1 [15:0] $end
$var reg 16 X Y2 [15:0] $end
$var reg 4 Y alu_control [3:0] $end
$upscope $end
$upscope $end
$scope module comp $end
$var wire 1 ) rFlag $end
$var wire 4 Z alu_control [3:0] $end
$var wire 16 [ Y1 [15:0] $end
$var wire 16 \ Y0 [15:0] $end
$scope function func_rFlag $end
$var reg 16 ] Y0 [15:0] $end
$var reg 16 ^ Y1 [15:0] $end
$var reg 4 _ alu_control [3:0] $end
$upscope $end
$upscope $end
$scope module data_selector $end
$var wire 16 ` F [15:0] $end
$var wire 16 a memory_data [15:0] $end
$var wire 8 b imm [7:0] $end
$var wire 3 c data_SEL [2:0] $end
$var wire 16 d BUS [15:0] $end
$upscope $end
$scope module decoder $end
$var wire 4 e opcode [3:0] $end
$var wire 3 f mode [2:0] $end
$var wire 16 g ld_sel [15:0] $end
$var wire 16 h im_out [15:0] $end
$var wire 3 i data_SEL [2:0] $end
$var wire 4 j alu_control [3:0] $end
$var wire 9 k SEL [8:0] $end
$var wire 7 l LD [6:0] $end
$scope function func_LD $end
$var reg 3 m dr [2:0] $end
$upscope $end
$scope function func_LDSEL $end
$var reg 16 n inst [15:0] $end
$var reg 4 o opcode [3:0] $end
$upscope $end
$scope function func_SEL $end
$var reg 3 p sra [2:0] $end
$upscope $end
$scope function func_aluSEL $end
$var reg 3 q mode [2:0] $end
$var reg 4 r opcode [3:0] $end
$upscope $end
$scope function func_dataSEL $end
$var reg 4 s opcode [3:0] $end
$upscope $end
$upscope $end
$scope module im_test $end
$var wire 1 ! clock $end
$var wire 16 t address [15:0] $end
$var reg 16 u q [15:0] $end
$upscope $end
$scope module memory_test $end
$var wire 8 v address [7:0] $end
$var wire 1 ! clock $end
$var wire 1 H wren $end
$var wire 16 w data [15:0] $end
$var reg 16 x q [15:0] $end
$var integer 32 y i [31:0] $end
$upscope $end
$scope module pipeline_BUS $end
$var wire 1 ! clk $end
$var wire 16 z in [15:0] $end
$var wire 1 ( rst $end
$var parameter 32 { DATA_W $end
$var reg 16 | q [15:0] $end
$upscope $end
$scope module pipeline_LD_memory $end
$var wire 1 ! clk $end
$var wire 1 H in $end
$var wire 1 ( rst $end
$var parameter 32 } DATA_W $end
$var reg 1 G q $end
$upscope $end
$scope module pipeline_LD_reg_WB $end
$var wire 1 ! clk $end
$var wire 1 ( rst $end
$var wire 4 ~ in [3:0] $end
$var parameter 32 !" DATA_W $end
$var reg 4 "" q [3:0] $end
$upscope $end
$scope module pipeline_LD_registers $end
$var wire 1 ! clk $end
$var wire 4 #" in [3:0] $end
$var wire 1 ( rst $end
$var parameter 32 $" DATA_W $end
$var reg 4 %" q [3:0] $end
$upscope $end
$scope module pipeline_Y0 $end
$var wire 1 ! clk $end
$var wire 1 ( rst $end
$var wire 16 &" in [15:0] $end
$var parameter 32 '" DATA_W $end
$var reg 16 (" q [15:0] $end
$upscope $end
$scope module pipeline_Y1 $end
$var wire 1 ! clk $end
$var wire 1 ( rst $end
$var wire 16 )" in [15:0] $end
$var parameter 32 *" DATA_W $end
$var reg 16 +" q [15:0] $end
$upscope $end
$scope module pipeline_Y2 $end
$var wire 1 ! clk $end
$var wire 1 ( rst $end
$var wire 16 ," in [15:0] $end
$var parameter 32 -" DATA_W $end
$var reg 16 ." q [15:0] $end
$upscope $end
$scope module pipeline_alu_control $end
$var wire 1 ! clk $end
$var wire 4 /" in [3:0] $end
$var wire 1 ( rst $end
$var parameter 32 0" DATA_W $end
$var reg 4 1" q [3:0] $end
$upscope $end
$scope module pipeline_data_SEL $end
$var wire 1 ! clk $end
$var wire 3 2" in [2:0] $end
$var wire 1 ( rst $end
$var parameter 32 3" DATA_W $end
$var reg 3 4" q [2:0] $end
$upscope $end
$scope module pipeline_im $end
$var wire 1 ! clk $end
$var wire 16 5" in [15:0] $end
$var wire 1 6" rst $end
$var parameter 32 7" DATA_W $end
$var reg 16 8" q [15:0] $end
$upscope $end
$scope module pipeline_imm $end
$var wire 1 ! clk $end
$var wire 8 9" in [7:0] $end
$var wire 1 :" rst $end
$var parameter 32 ;" DATA_W $end
$var reg 8 <" q [7:0] $end
$upscope $end
$scope module pipeline_imm_ex $end
$var wire 1 ! clk $end
$var wire 8 =" in [7:0] $end
$var wire 1 ( rst $end
$var parameter 32 >" DATA_W $end
$var reg 8 ?" q [7:0] $end
$upscope $end
$scope module programcounter $end
$var wire 1 J LD $end
$var wire 1 ! clk $end
$var wire 1 ) rFlag $end
$var wire 1 ( rst $end
$var wire 16 @" Y2 [15:0] $end
$var reg 16 A" PC [15:0] $end
$upscope $end
$scope module registers $end
$var wire 16 B" BUS [15:0] $end
$var wire 4 C" LD [3:0] $end
$var wire 1 ! clk $end
$var wire 1 ( rst $end
$var wire 16 D" t3 [15:0] $end
$var wire 16 E" t2 [15:0] $end
$var wire 16 F" t1 [15:0] $end
$var wire 16 G" t0 [15:0] $end
$var wire 16 H" i1 [15:0] $end
$var wire 16 I" i0 [15:0] $end
$var wire 16 J" const [15:0] $end
$scope module regconst $end
$var wire 16 K" BUS [15:0] $end
$var wire 1 L" LD $end
$var wire 1 ! clk $end
$var wire 1 ( rst $end
$var reg 16 M" q [15:0] $end
$upscope $end
$scope module regi0 $end
$var wire 16 N" BUS [15:0] $end
$var wire 1 O" LD $end
$var wire 1 ! clk $end
$var wire 1 ( rst $end
$var reg 16 P" q [15:0] $end
$upscope $end
$scope module regi1 $end
$var wire 16 Q" BUS [15:0] $end
$var wire 1 R" LD $end
$var wire 1 ! clk $end
$var wire 1 ( rst $end
$var reg 16 S" q [15:0] $end
$upscope $end
$scope module regt0 $end
$var wire 16 T" BUS [15:0] $end
$var wire 1 U" LD $end
$var wire 1 ! clk $end
$var wire 1 ( rst $end
$var reg 16 V" q [15:0] $end
$upscope $end
$scope module regt1 $end
$var wire 16 W" BUS [15:0] $end
$var wire 1 X" LD $end
$var wire 1 ! clk $end
$var wire 1 ( rst $end
$var reg 16 Y" q [15:0] $end
$upscope $end
$scope module regt2 $end
$var wire 16 Z" BUS [15:0] $end
$var wire 1 [" LD $end
$var wire 1 ! clk $end
$var wire 1 ( rst $end
$var reg 16 \" q [15:0] $end
$upscope $end
$scope module regt3 $end
$var wire 16 ]" BUS [15:0] $end
$var wire 1 ^" LD $end
$var wire 1 ! clk $end
$var wire 1 ( rst $end
$var reg 16 _" q [15:0] $end
$upscope $end
$upscope $end
$scope module sel $end
$var wire 16 `" BUS [15:0] $end
$var wire 16 a" BUS_past [15:0] $end
$var wire 4 b" LD_reg [3:0] $end
$var wire 4 c" LD_reg_past [3:0] $end
$var wire 6 d" SEL [5:0] $end
$var wire 16 e" Y1_sel [15:0] $end
$var wire 16 f" Y1_ex [15:0] $end
$var wire 16 g" Y0_sel [15:0] $end
$var wire 16 h" Y0_ex [15:0] $end
$scope function func_Y $end
$var reg 16 i" BUS [15:0] $end
$var reg 16 j" BUS_past [15:0] $end
$var reg 4 k" LD [3:0] $end
$var reg 4 l" LD_past [3:0] $end
$var reg 3 m" SEL [2:0] $end
$var reg 16 n" Y [15:0] $end
$upscope $end
$upscope $end
$scope module sel_jmp $end
$var wire 16 o" BUS [15:0] $end
$var wire 16 p" BUS_past [15:0] $end
$var wire 4 q" LD_reg [3:0] $end
$var wire 4 r" LD_reg_past [3:0] $end
$var wire 3 s" SEL [2:0] $end
$var wire 16 t" Y2_sel [15:0] $end
$var wire 16 u" Y2 [15:0] $end
$scope function func_Y $end
$var reg 16 v" BUS [15:0] $end
$var reg 16 w" BUS_past [15:0] $end
$var reg 4 x" LD [3:0] $end
$var reg 4 y" LD_past [3:0] $end
$var reg 3 z" SEL [2:0] $end
$var reg 16 {" Y [15:0] $end
$upscope $end
$upscope $end
$scope module selecter_pc $end
$var wire 16 |" PC [15:0] $end
$var wire 16 }" Y2 [15:0] $end
$var wire 1 ) rFlag $end
$var wire 16 ~" PC_im [15:0] $end
$upscope $end
$scope module selectors $end
$var wire 9 !# SEL [8:0] $end
$var wire 16 "# const [15:0] $end
$var wire 16 ## i0 [15:0] $end
$var wire 16 $# i1 [15:0] $end
$var wire 16 %# t0 [15:0] $end
$var wire 16 &# t1 [15:0] $end
$var wire 16 '# t2 [15:0] $end
$var wire 16 (# t3 [15:0] $end
$var wire 16 )# Y2 [15:0] $end
$var wire 16 *# Y1 [15:0] $end
$var wire 16 +# Y0 [15:0] $end
$scope module selector1 $end
$var wire 3 ,# SEL [2:0] $end
$var wire 16 -# const [15:0] $end
$var wire 16 .# i0 [15:0] $end
$var wire 16 /# i1 [15:0] $end
$var wire 16 0# t0 [15:0] $end
$var wire 16 1# t1 [15:0] $end
$var wire 16 2# t2 [15:0] $end
$var wire 16 3# t3 [15:0] $end
$var wire 16 4# Y [15:0] $end
$upscope $end
$scope module selector2 $end
$var wire 3 5# SEL [2:0] $end
$var wire 16 6# const [15:0] $end
$var wire 16 7# i0 [15:0] $end
$var wire 16 8# i1 [15:0] $end
$var wire 16 9# t0 [15:0] $end
$var wire 16 :# t1 [15:0] $end
$var wire 16 ;# t2 [15:0] $end
$var wire 16 <# t3 [15:0] $end
$var wire 16 =# Y [15:0] $end
$upscope $end
$scope module selector3 $end
$var wire 3 ># SEL [2:0] $end
$var wire 16 ?# const [15:0] $end
$var wire 16 @# i0 [15:0] $end
$var wire 16 A# i1 [15:0] $end
$var wire 16 B# t0 [15:0] $end
$var wire 16 C# t1 [15:0] $end
$var wire 16 D# t2 [15:0] $end
$var wire 16 E# t3 [15:0] $end
$var wire 16 F# Y [15:0] $end
$upscope $end
$upscope $end
$upscope $end
$upscope $end
$enddefinitions $end
$comment Show the parameter values. $end
$dumpall
b1000 >"
b1000 ;"
b10000 7"
b11 3"
b100 0"
b10000 -"
b10000 *"
b10000 '"
b100 $"
b100 !"
b1 }
b10000 {
$end
#0
$dumpvars
bx F#
bx E#
bx D#
bx C#
bx B#
bx A#
bx @#
bx ?#
b0 >#
bx =#
bx <#
bx ;#
bx :#
bx 9#
bx 8#
bx 7#
bx 6#
b0 5#
bx 4#
bx 3#
bx 2#
bx 1#
bx 0#
bx /#
bx .#
bx -#
b0 ,#
bx +#
bx *#
bx )#
bx (#
bx '#
bx &#
bx %#
bx $#
bx ##
bx "#
b0 !#
bx ~"
bx }"
bx |"
bx {"
b0 z"
bx y"
bx x"
bx w"
bx v"
bx u"
bx t"
b0 s"
bx r"
bx q"
bx p"
bx o"
bx n"
b0 m"
bx l"
bx k"
bx j"
bx i"
bx h"
bx g"
bx f"
bx e"
b0 d"
bx c"
bx b"
bx a"
bx `"
bx _"
x^"
bx ]"
bx \"
x["
bx Z"
bx Y"
xX"
bx W"
bx V"
xU"
bx T"
bx S"
1R"
b1100100 Q"
bx P"
1O"
b1010 N"
bx M"
1L"
b0 K"
bx J"
bx I"
bx H"
bx G"
bx F"
bx E"
bx D"
bx C"
bx B"
bx A"
bx @"
bx ?"
bx ="
bx <"
1:"
bx 9"
bx 8"
16"
bx 5"
bx 4"
b0 2"
bx 1"
b1100 /"
bx ."
bx ,"
bx +"
bx )"
bx ("
bx &"
bx %"
b0 #"
bx ""
bx ~
bx |
bx z
b100000000 y
bx x
bx w
bx v
bx u
bx t
bx s
bx r
bx q
bx p
bx o
bx n
bx m
b0 l
b0 k
b1100 j
b0 i
bx h
b0 g
bx f
bx e
bx d
bx c
bx b
bx a
bx `
b1100 _
bx ^
bx ]
bx \
bx [
b1100 Z
bx Y
bx X
bx W
bx V
bx U
bx T
bx S
bx R
bx Q
bx P
bx O
bx N
bx M
bx L
b0 K
0J
0I
0H
xG
b0 F
bx E
bx D
bx C
bx B
b0 A
bx @
bx ?
bx >
bx =
bx <
bx ;
bx :
bx 9
bx 8
bx 7
b1100 6
bx 5
bx 4
b0 3
bx 2
bx 1
bx 0
bx /
bx .
bx -
bx ,
bx +
bx *
0)
1(
bx '
bx &
bx %
bx $
b0 #
0"
0!
$end
#1
b110 m"
b0 i"
b0 v"
b110 z"
b110 ,#
b110 5#
b110 >#
b110 s"
b110110 d"
b0 ^
b0 ]
b0 N
b0 O
b0 d
b0 z
b0 `"
b0 o"
b110110110 A
b110110110 k
b110110110 !#
b0 s
b0 q
b0 r
b0 >
b0 \
b0 w
b0 &"
b0 g"
b0 ;
b0 [
b0 )"
b0 e"
b0 n"
b0 8
b0 ,"
b0 @"
b0 t"
b0 }"
b0 {"
b0 B
b0 t
b0 ~"
b110110110 g
b0 o
b0 n
b0 f
b0 e
b0 @
b0 h"
b0 +#
b0 4#
b0 =
b0 f"
b0 *#
b0 =#
b0 :
b0 u"
b0 )#
b0 F#
b0 v
b0 L
b0 U
b0 `
b0 X
b0 W
b0 V
b0 Y
0U"
0X"
0["
0^"
b0 j"
b0 l"
b0 k"
b0 w"
b0 y"
b0 x"
b0 C
b0 A"
b0 |"
b0 .
b0 h
b0 8"
b0 +
b0 <"
b0 ="
b0 '
b0 G"
b0 V"
b0 %#
b0 0#
b0 9#
b0 B#
b0 &
b0 F"
b0 Y"
b0 &#
b0 1#
b0 :#
b0 C#
b0 %
b0 E"
b0 \"
b0 '#
b0 2#
b0 ;#
b0 D#
b0 $
b0 D"
b0 _"
b0 (#
b0 3#
b0 <#
b0 E#
b0 1
b0 I"
b0 P"
b0 ##
b0 .#
b0 7#
b0 @#
b0 0
b0 H"
b0 S"
b0 $#
b0 /#
b0 8#
b0 A#
b0 4
b0 J"
b0 M"
b0 "#
b0 -#
b0 6#
b0 ?#
b0 7
b0 P
0G
b0 E
b0 ~
b0 %"
b0 b"
b0 q"
b0 2
b0 c
b0 4"
b0 5
b0 Q
b0 1"
b0 ?
b0 T
b0 ("
b0 <
b0 S
b0 +"
b0 9
b0 R
b0 ."
b0 ,
b0 b
b0 ?"
b0xxxxxxxx *
b0xxxxxxxx a
b0xxxxxxxx x
b0 D
b0 ""
b0 C"
b0 c"
b0 r"
b0 M
b0 |
b0 B"
b0 T"
b0 W"
b0 Z"
b0 ]"
b0 a"
b0 p"
1!
#2
0:"
06"
0(
0!
b1 #
1"
#3
b0 m"
b0 z"
b0 ,#
b0 5#
b0 >#
b0 s"
b0 d"
b0 A
b0 k
b0 !#
bx s
bx q
bx r
b1100 Y
b0 g
bx o
bx n
bx f
bx e
b100 -
b100 9"
b1 B
b1 t
b1 ~"
b0 *
b0 a
b0 x
b1100 5
b1100 Q
b1100 1"
b1100100 0
b1100100 H"
b1100100 S"
b1100100 $#
b1100100 /#
b1100100 8#
b1100100 A#
b1010 1
b1010 I"
b1010 P"
b1010 ##
b1010 .#
b1010 7#
b1010 @#
bx +
bx <"
bx ="
bx .
bx h
bx 8"
b100101000001000 /
b100101000001000 u
b100101000001000 5"
b1 C
b1 A"
b1 |"
1!
#4
0!
#5
b110 m"
b110 z"
b1 F
b1 #"
b110 ,#
b110 5#
b110 >#
b110 s"
b110110 d"
b10 _
b1000 K
b1000 l
b110110110 A
b110110110 k
b110110110 !#
b10 3
b10 i
b10 2"
b100 s
b10 6
b10 Z
b10 j
b10 /"
b0 q
b100 r
b10 B
b10 t
b10 ~"
b1 -
b1 9"
b1000110110110 g
b101 m
b100 o
b100101000001000 n
b0 f
b100 e
b10 C
b10 A"
b10 |"
b100011000000010 /
b100011000000010 u
b100011000000010 5"
b100101000001000 .
b100101000001000 h
b100101000001000 8"
b100 +
b100 <"
b100 ="
bx ,
bx b
bx ?"
1!
#6
0!
#7
b100 F
b100 #"
b100 i"
b100 v"
b100000 K
b100000 l
b10 q
b10 Y
b100 N
b100 O
b100 d
b100 z
b100 `"
b100 o"
b1 k"
b1 x"
b100000110110110 g
b11 m
b100011000000010 n
b10 f
b100 -
b100 9"
b11 B
b11 t
b11 ~"
b100 ,
b100 b
b100 ?"
b10 5
b10 Q
b10 1"
b10 2
b10 c
b10 4"
b1 E
b1 ~
b1 %"
b1 b"
b1 q"
b1 +
b1 <"
b1 ="
b100011000000010 .
b100011000000010 h
b100011000000010 8"
b100100000001000 /
b100100000001000 u
b100100000001000 5"
b11 C
b11 A"
b11 |"
1!
#8
0!
#9
b10 F
b10 #"
b10000 K
b10000 l
b0 q
b1 i"
b1 v"
b100 B
b100 t
b100 ~"
b0 -
b0 9"
b10000110110110 g
b100 m
b100100000001000 n
b0 f
b1 N
b1 O
b1 d
b1 z
b1 `"
b1 o"
1^"
b100 j"
b1 l"
b100 k"
b100 w"
b1 y"
b100 x"
b100 C
b100 A"
b100 |"
b100010000000000 /
b100010000000000 u
b100010000000000 5"
b100100000001000 .
b100100000001000 h
b100100000001000 8"
b100 +
b100 <"
b100 ="
b100 E
b100 ~
b100 %"
b100 b"
b100 q"
b1 ,
b1 b
b1 ?"
b1 D
b1 ""
b1 C"
b1 c"
b1 r"
b100 M
b100 |
b100 B"
b100 T"
b100 W"
b100 Z"
b100 ]"
b100 a"
b100 p"
1!
#10
0!
#11
b1000 F
b1000 #"
b100 i"
b100 v"
b1000000 K
b1000000 l
1X"
0^"
b100 N
b100 O
b100 d
b100 z
b100 `"
b100 o"
b1 j"
b100 l"
b10 k"
b1 w"
b100 y"
b10 x"
b1000000110110110 g
b10 m
b100010000000000 n
b1101000 -
b1101000 9"
b101 B
b101 t
b101 ~"
b1 M
b1 |
b1 B"
b1 T"
b1 W"
b1 Z"
b1 ]"
b1 a"
b1 p"
b100 D
b100 ""
b100 C"
b100 c"
b100 r"
b100 ,
b100 b
b100 ?"
b10 E
b10 ~
b10 %"
b10 b"
b10 q"
b100 $
b100 D"
b100 _"
b100 (#
b100 3#
b100 <#
b100 E#
b0 +
b0 <"
b0 ="
b100010000000000 .
b100010000000000 h
b100010000000000 8"
b1010011010000 /
b1010011010000 u
b1010011010000 5"
b101 C
b101 A"
b101 |"
1!
#12
0!
#13
b1 ^
b1 ;
b1 [
b1 )"
b1 e"
b1 n"
b1 =
b1 f"
b1 *#
b1 =#
b1 m"
b0 ,#
b1 5#
b1 d"
b0 _
b1110 A
b1110 k
b1110 !#
b0 3
b0 i
b0 2"
b1 s
b0 6
b0 Z
b0 j
b0 /"
b1 r
b0 i"
b0 v"
b110 B
b110 t
b110 ~"
b1010000 -
b1010000 9"
b1000000000001110 g
b11 p
b1 o
b1010011010000 n
b1 e
b0 N
b0 O
b0 d
b0 z
b0 `"
b0 o"
0X"
1["
b100 j"
b10 l"
b1000 k"
b100 w"
b10 y"
b1000 x"
b110 C
b110 A"
b110 |"
b110101010100001 /
b110101010100001 u
b110101010100001 5"
b1010011010000 .
b1010011010000 h
b1010011010000 8"
b1101000 +
b1101000 <"
b1101000 ="
b1 &
b1 F"
b1 Y"
b1 &#
b1 1#
b1 :#
b1 C#
b1000 E
b1000 ~
b1000 %"
b1000 b"
b1000 q"
b0 ,
b0 b
b0 ?"
b10 D
b10 ""
b10 C"
b10 c"
b10 r"
b100 M
b100 |
b100 B"
b100 T"
b100 W"
b100 Z"
b100 ]"
b100 a"
b100 p"
1!
#14
0!
#15
1:"
16"
1)
b100 ]
b100 >
b100 \
b100 w
b100 &"
b100 g"
b100 @
b100 h"
b100 +#
b100 4#
b100 8
b100 ,"
b100 @"
b100 t"
b100 }"
b100 {"
b100 :
b100 u"
b100 )#
b100 F#
b1 i"
b0 =
b0 f"
b0 *#
b0 =#
b1 v"
b10 z"
b1 N
b1 O
b1 d
b1 z
b1 `"
b1 o"
b0 F
b0 #"
1J
b11 ,#
b0 5#
b10 >#
b10 s"
b11000 d"
b111 _
b1 K
b1 l
b11000010 A
b11000010 k
b11000010 !#
b110 s
b111 6
b111 Z
b111 j
b111 /"
b1 q
b110 r
1U"
0["
b100 n"
b11 m"
b0 j"
b1000 l"
b0 w"
b1000 y"
b1 L
b1 U
b1 `
b1 W
b0 Y
b1011000010 g
b100 p
b110 o
b110101010100001 n
b1 f
b110 e
bx -
bx 9"
b100 B
b100 t
b100 ~"
b0 M
b0 |
b0 B"
b0 T"
b0 W"
b0 Z"
b0 ]"
b0 a"
b0 p"
b1000 D
b1000 ""
b1000 C"
b1000 c"
b1000 r"
b1101000 ,
b1101000 b
b1101000 ?"
b1 <
b1 S
b1 +"
b0 5
b0 Q
b0 1"
b0 2
b0 c
b0 4"
b100 %
b100 E"
b100 \"
b100 '#
b100 2#
b100 ;#
b100 D#
b1010000 +
b1010000 <"
b1010000 ="
b110101010100001 .
b110101010100001 h
b110101010100001 8"
bx /
bx u
bx 5"
b111 C
b111 A"
b111 |"
1!
#16
0!
#17
b0 ]
b0 >
b0 \
b0 w
b0 &"
b0 g"
b0 @
b0 h"
b0 +#
b0 4#
b0 8
b0 ,"
b0 @"
b0 t"
b0 }"
b0 {"
b0 :
b0 u"
b0 )#
b0 F#
b0 ^
b0 ;
b0 [
b0 )"
b0 e"
b101 B
b101 t
b101 ~"
0:"
06"
b100 i"
b100 v"
b110 z"
0J
b110 ,#
b110 5#
b110 >#
b110 s"
b110110 d"
0)
b1100 _
b100 N
b100 O
b100 d
b100 z
b100 `"
b100 o"
b0 K
b0 l
b110110110 A
b110110110 k
b110110110 !#
b0 s
b1100 6
b1100 Z
b1100 j
b1100 /"
b0 q
b0 r
b1101000 -
b1101000 9"
b110110110 g
b0 o
b0 n
b0 f
b0 e
b100 L
b100 U
b100 `
b100 X
b100 V
b111 Y
b1 j"
b0 n"
b110 m"
b0 k"
b1 w"
b0 x"
b101 C
b101 A"
b101 |"
b1010011010000 /
b1010011010000 u
b1010011010000 5"
b0 .
b0 h
b0 8"
b0 +
b0 <"
b0 ="
b0 E
b0 ~
b0 %"
b0 b"
b0 q"
b111 5
b111 Q
b111 1"
b100 ?
b100 T
b100 ("
b100 9
b100 R
b100 ."
b1010000 ,
b1010000 b
b1010000 ?"
b1 M
b1 |
b1 B"
b1 T"
b1 W"
b1 Z"
b1 ]"
b1 a"
b1 p"
1!
#18
0!
#19
b1 ^
b1 ;
b1 [
b1 )"
b1 e"
b1 ]
b1 =
b1 f"
b1 *#
b1 =#
b1 >
b1 \
b1 w
b1 &"
b1 g"
b1 n"
b0 i"
b1 m"
b0 v"
b1 @
b1 h"
b1 +#
b1 4#
b0 N
b0 O
b0 d
b0 z
b0 `"
b0 o"
b1000 F
b1000 #"
b0 ,#
b1 5#
b1 d"
b0 _
b1000000 K
b1000000 l
b1110 A
b1110 k
b1110 !#
b1 s
b0 6
b0 Z
b0 j
b0 /"
b1 r
0U"
b100 j"
b0 l"
b100 w"
b0 y"
b0 L
b0 U
b0 `
b0 X
b0 W
b0 V
b1100 Y
b1000000000001110 g
b11 p
b1 o
b1010011010000 n
b1 e
b1010000 -
b1010000 9"
b110 B
b110 t
b110 ~"
b100 M
b100 |
b100 B"
b100 T"
b100 W"
b100 Z"
b100 ]"
b100 a"
b100 p"
b0 D
b0 ""
b0 C"
b0 c"
b0 r"
b0 ,
b0 b
b0 ?"
b0 9
b0 R
b0 ."
b0 <
b0 S
b0 +"
b0 ?
b0 T
b0 ("
b1100 5
b1100 Q
b1100 1"
b1 '
b1 G"
b1 V"
b1 %#
b1 0#
b1 9#
b1 B#
b1101000 +
b1101000 <"
b1101000 ="
b1010011010000 .
b1010011010000 h
b1010011010000 8"
b110101010100001 /
b110101010100001 u
b110101010100001 5"
b110 C
b110 A"
b110 |"
1!
#20
0!
#21
b100 8
b100 ,"
b100 @"
b100 t"
b100 }"
b100 {"
b100 :
b100 u"
b100 )#
b100 F#
b10 ^
1:"
16"
b100 n"
b10 ;
b10 [
b10 )"
b10 e"
1)
b100 @
b100 h"
b100 +#
b100 4#
b10 i"
b10 v"
b10 z"
b0 F
b0 #"
1J
b11 ,#
b0 5#
b10 >#
b10 s"
b11000 d"
b111 _
b10 N
b10 O
b10 d
b10 z
b10 `"
b10 o"
b1 K
b1 l
b11000010 A
b11000010 k
b11000010 !#
b110 s
b111 6
b111 Z
b111 j
b111 /"
b1 q
b110 r
b100 ]
b100 B
b100 t
b100 ~"
bx -
bx 9"
b1011000010 g
b100 p
b110 o
b110101010100001 n
b1 f
b110 e
b10 L
b10 U
b10 `
b1 W
b1 V
b0 Y
b100 >
b100 \
b100 w
b100 &"
b100 g"
b11 m"
b0 j"
b1000 k"
b0 w"
b1000 x"
b111 C
b111 A"
b111 |"
bx /
bx u
bx 5"
b110101010100001 .
b110101010100001 h
b110101010100001 8"
b1010000 +
b1010000 <"
b1010000 ="
b1000 E
b1000 ~
b1000 %"
b1000 b"
b1000 q"
b0 5
b0 Q
b0 1"
b1 ?
b1 T
b1 ("
b1 <
b1 S
b1 +"
b1101000 ,
b1101000 b
b1101000 ?"
b0 M
b0 |
b0 B"
b0 T"
b0 W"
b0 Z"
b0 ]"
b0 a"
b0 p"
1!
#22
0!
#23
b0 ]
b0 >
b0 \
b0 w
b0 &"
b0 g"
b0 @
b0 h"
b0 +#
b0 4#
b0 8
b0 ,"
b0 @"
b0 t"
b0 }"
b0 {"
b0 :
b0 u"
b0 )#
b0 F#
b0 ^
b0 ;
b0 [
b0 )"
b0 e"
b100 i"
b0 =
b0 f"
b0 *#
b0 =#
b100 v"
b110 z"
b101 B
b101 t
b101 ~"
0:"
06"
b100 N
b100 O
b100 d
b100 z
b100 `"
b100 o"
0J
b110 ,#
b110 5#
b110 >#
b110 s"
b110110 d"
0)
b1100 _
b0 K
b0 l
b110110110 A
b110110110 k
b110110110 !#
b0 s
b1100 6
b1100 Z
b1100 j
b1100 /"
b0 q
b0 r
1U"
b100 L
b100 U
b100 `
b100 X
b10 W
b100 V
b111 Y
b10 j"
b0 n"
b110 m"
b1000 l"
b0 k"
b10 w"
b1000 y"
b0 x"
b110110110 g
b0 o
b0 n
b0 f
b0 e
b1101000 -
b1101000 9"
b10 M
b10 |
b10 B"
b10 T"
b10 W"
b10 Z"
b10 ]"
b10 a"
b10 p"
b1000 D
b1000 ""
b1000 C"
b1000 c"
b1000 r"
b1010000 ,
b1010000 b
b1010000 ?"
b100 9
b100 R
b100 ."
b10 <
b10 S
b10 +"
b100 ?
b100 T
b100 ("
b111 5
b111 Q
b111 1"
b0 E
b0 ~
b0 %"
b0 b"
b0 q"
b0 +
b0 <"
b0 ="
b0 .
b0 h
b0 8"
b1010011010000 /
b1010011010000 u
b1010011010000 5"
b101 C
b101 A"
b101 |"
1!
#24
0!
